136 -32 -24 776
992
80 -80 816
104 -24 848
992
112 -40 824
-32 -32 -32 -32 -32 -32 752
-24 -16 -8 920
-16 32 -24 8 -16 -24 824
992
-48 -40 -32 -24 -16 -8 776
72 -16 72 -16 72 -16 680
-16 -8 -16 -8 -16 -8 -16 -8 -16 -8 -16 -8 -16 -8 -16 -8 672
24 -48 -40 856
-72 -64 -56 -48 -40 -32 -24 -16 -8 560
-8 -24 -40 32 -48 800
-56 136 -24 -40 -24 -40 624
-24 -8 8 -24 896
40 -16 -24 -8 872
56 -80 840
